week,deaths,deaths_5_year_average,influenza,influenza_5_year_average,covid
1,12254,12175,2596,2775,0
2,14058,13822,2994,3427,0
3,12990,13216,2686,3299,0
4,11856,12760,2426,3028,0
5,11612,12206,2267,2789,0
6,10986,11925,2045,2654,0
7,10944,11627,1978,2551,0
8,10841,11548,1996,2539,0
9,10816,11183,1948,2410,0
10,10895,11498,1907,2413,0
11,11019,11205,1879,2326,5
12,10645,10573,1808,2120,103
13,11141,10130,1863,1983,539
14,16387,10305,2367,2064,3475
15,18516,10520,2003,2076,6213
16,22351,10497,1931,2034,8758
